{
    "target" : "dist/RobotWebService.bin",
    "platform" : "X86_64",
    "compiler" : "/usr/bin/g++",
    "buildPath" : "dist/build",
    "debugger" : "/usr/bin/gdb",
    "buildOptions" : ["-pipe", "-g", "-std=gnu++11", "-W", "-fPIC"],
    "sourcesPaths" : ["../SpecialK/LibSkFlat", "../SpecialK/LibSkCore", "../SpecialK/LibSkScript"],
    "includeOptPaths" : [ ],
    "dynamicDeps" : [ ],
    "defines" : [
        "-DSPECIALK_APPLICATION",
        "-DENABLE_SKAPP",
        "-DENABLE_AES",
        "-DENABLE_SSL",
        "-DENABLE_HTTP",
        "-DENABLE_XML"
    ],
    "libs" : ["-pthread", "-L/usr/lib", "-lm", "-lz", "-lssl", "-lcrypto"]
}
